tests/test_dumps/apb.vcd
$date
   Date text. For example: November 11, 2009.
$end
$version
   VCD generator tool version info text.
$end
$comment
   Any comment text.
$end
$timescale 1ps $end
$scope module logic $end
$var wire 1 # clk $end 
$var wire 8 $ addr $end
$var wire 1 % psel $end
$var wire 1 & penable $end
$var wire 1 ' pready $end
$var wire 1 * reset $end
$upscope $end
$enddefinitions $end
$dumpvars
1#
bxxxxxxxx $
0%
0&
0'
0*
$end
#1
0#
#2
1#
b00000001 $
1%
0&
0'
1*
#3
0#
#4
1#
1&
1'
#5
0#
#6
1#
b00000010 $
1%
0&
#7
0#
#8
1&
1#
1%
#9
0#
#10
1#
bxxxxxxxx $
0%
0&
#11
0#
#12
1#
0'
bxxxxxxxx $
#13
0#
#14
1#
b0000011 $
1%
#15
0#
#16
1#
1&
#17
0#
#18
1#
1'
1&
#19
0#
#20
b0000100 $
1#
0&
#21
0#
#22
1#
1&
#23
0#
#24
b00000101 $
1#
0&
#25
0#
#26
1#
1&
#27
0#
#28
1#
bxxxxxxxx $
0%
0&
#29
0#
#30
1#
#31
0#
#32
1#
b00000110 $
1%
#33
0#
#34
1#
1&
0'
#35
0#
#36
1#
#37
0#
#38
1#
#39
0#
#40
1#
1%
#41
0#
#42
1#
1'
