tests/test_dumps/axi.vcd
$version
	fstWriter
$end
$timescale
	1ps
$end
$scope module test_taxi_axi_ram $end
$var parameter 32 ! DATA_W [31:0] $end
$var parameter 32 " ADDR_W [31:0] $end
$var parameter 32 # STRB_W [31:0] $end
$var parameter 32 $ ID_W [31:0] $end
$var parameter 32 % PIPELINE_OUTPUT [31:0] $end
$var logic 1 & clk $end
$var logic 1 ' rst $end
$scope interface s_axi $end
$var parameter 32 ! DATA_W [31:0] $end
$var parameter 32 ! ADDR_W [31:0] $end
$var parameter 32 # STRB_W [31:0] $end
$var parameter 32 $ ID_W [31:0] $end
$var parameter 1 ( AWUSER_EN $end
$var parameter 32 ) AWUSER_W [31:0] $end
$var parameter 1 ( WUSER_EN $end
$var parameter 32 ) WUSER_W [31:0] $end
$var parameter 1 ( BUSER_EN $end
$var parameter 32 ) BUSER_W [31:0] $end
$var parameter 1 ( ARUSER_EN $end
$var parameter 32 ) ARUSER_W [31:0] $end
$var parameter 1 ( RUSER_EN $end
$var parameter 32 ) RUSER_W [31:0] $end
$var parameter 32 * MAX_BURST_LEN [31:0] $end
$var parameter 1 + NARROW_BURST_EN $end
$var logic 8 , awid [7:0] $end
$var logic 32 - awaddr [31:0] $end
$var logic 8 . awlen [7:0] $end
$var logic 3 / awsize [2:0] $end
$var logic 2 0 awburst [1:0] $end
$var logic 1 1 awlock $end
$var logic 4 2 awcache [3:0] $end
$var logic 3 3 awprot [2:0] $end
$var logic 4 4 awqos [3:0] $end
$var logic 4 5 awregion [3:0] $end
$var logic 1 6 awuser [0:0] $end
$var logic 1 7 awvalid $end
$var logic 1 8 awready $end
$var logic 32 9 wdata [31:0] $end
$var logic 4 : wstrb [3:0] $end
$var logic 1 ; wlast $end
$var logic 1 < wuser [0:0] $end
$var logic 1 = wvalid $end
$var logic 1 > wready $end
$var logic 8 ? bid [7:0] $end
$var logic 2 @ bresp [1:0] $end
$var logic 1 A buser [0:0] $end
$var logic 1 B bvalid $end
$var logic 1 C bready $end
$var logic 8 D arid [7:0] $end
$var logic 32 E araddr [31:0] $end
$var logic 8 F arlen [7:0] $end
$var logic 3 G arsize [2:0] $end
$var logic 2 H arburst [1:0] $end
$var logic 1 I arlock $end
$var logic 4 J arcache [3:0] $end
$var logic 3 K arprot [2:0] $end
$var logic 4 L arqos [3:0] $end
$var logic 4 M arregion [3:0] $end
$var logic 1 N aruser [0:0] $end
$var logic 1 O arvalid $end
$var logic 1 P arready $end
$var logic 8 Q rid [7:0] $end
$var logic 32 R rdata [31:0] $end
$var logic 2 S rresp [1:0] $end
$var logic 1 T rlast $end
$var logic 1 U ruser [0:0] $end
$var logic 1 V rvalid $end
$var logic 1 W rready $end
$upscope $end
$scope module uut $end
$var parameter 32 " ADDR_W [31:0] $end
$var parameter 1 ( PIPELINE_OUTPUT $end
$var wire 1 X clk $end
$var wire 1 Y rst $end
$scope interface s_axi_wr $end
$var parameter 32 ! DATA_W [31:0] $end
$var parameter 32 ! ADDR_W [31:0] $end
$var parameter 32 # STRB_W [31:0] $end
$var parameter 32 $ ID_W [31:0] $end
$var parameter 1 ( AWUSER_EN $end
$var parameter 32 ) AWUSER_W [31:0] $end
$var parameter 1 ( WUSER_EN $end
$var parameter 32 ) WUSER_W [31:0] $end
$var parameter 1 ( BUSER_EN $end
$var parameter 32 ) BUSER_W [31:0] $end
$var parameter 1 ( ARUSER_EN $end
$var parameter 32 ) ARUSER_W [31:0] $end
$var parameter 1 ( RUSER_EN $end
$var parameter 32 ) RUSER_W [31:0] $end
$var parameter 32 * MAX_BURST_LEN [31:0] $end
$var parameter 1 + NARROW_BURST_EN $end
$var logic 8 , awid [7:0] $end
$var logic 32 - awaddr [31:0] $end
$var logic 8 . awlen [7:0] $end
$var logic 3 / awsize [2:0] $end
$var logic 2 0 awburst [1:0] $end
$var logic 1 1 awlock $end
$var logic 4 2 awcache [3:0] $end
$var logic 3 3 awprot [2:0] $end
$var logic 4 4 awqos [3:0] $end
$var logic 4 5 awregion [3:0] $end
$var logic 1 6 awuser [0:0] $end
$var logic 1 7 awvalid $end
$var logic 1 8 awready $end
$var logic 32 9 wdata [31:0] $end
$var logic 4 : wstrb [3:0] $end
$var logic 1 ; wlast $end
$var logic 1 < wuser [0:0] $end
$var logic 1 = wvalid $end
$var logic 1 > wready $end
$var logic 8 ? bid [7:0] $end
$var logic 2 @ bresp [1:0] $end
$var logic 1 A buser [0:0] $end
$var logic 1 B bvalid $end
$var logic 1 C bready $end
$var logic 8 D arid [7:0] $end
$var logic 32 E araddr [31:0] $end
$var logic 8 F arlen [7:0] $end
$var logic 3 G arsize [2:0] $end
$var logic 2 H arburst [1:0] $end
$var logic 1 I arlock $end
$var logic 4 J arcache [3:0] $end
$var logic 3 K arprot [2:0] $end
$var logic 4 L arqos [3:0] $end
$var logic 4 M arregion [3:0] $end
$var logic 1 N aruser [0:0] $end
$var logic 1 O arvalid $end
$var logic 1 P arready $end
$var logic 8 Q rid [7:0] $end
$var logic 32 R rdata [31:0] $end
$var logic 2 S rresp [1:0] $end
$var logic 1 T rlast $end
$var logic 1 U ruser [0:0] $end
$var logic 1 V rvalid $end
$var logic 1 W rready $end
$upscope $end
$scope interface s_axi_rd $end
$var parameter 32 ! DATA_W [31:0] $end
$var parameter 32 ! ADDR_W [31:0] $end
$var parameter 32 # STRB_W [31:0] $end
$var parameter 32 $ ID_W [31:0] $end
$var parameter 1 ( AWUSER_EN $end
$var parameter 32 ) AWUSER_W [31:0] $end
$var parameter 1 ( WUSER_EN $end
$var parameter 32 ) WUSER_W [31:0] $end
$var parameter 1 ( BUSER_EN $end
$var parameter 32 ) BUSER_W [31:0] $end
$var parameter 1 ( ARUSER_EN $end
$var parameter 32 ) ARUSER_W [31:0] $end
$var parameter 1 ( RUSER_EN $end
$var parameter 32 ) RUSER_W [31:0] $end
$var parameter 32 * MAX_BURST_LEN [31:0] $end
$var parameter 1 + NARROW_BURST_EN $end
$var logic 8 , awid [7:0] $end
$var logic 32 - awaddr [31:0] $end
$var logic 8 . awlen [7:0] $end
$var logic 3 / awsize [2:0] $end
$var logic 2 0 awburst [1:0] $end
$var logic 1 1 awlock $end
$var logic 4 2 awcache [3:0] $end
$var logic 3 3 awprot [2:0] $end
$var logic 4 4 awqos [3:0] $end
$var logic 4 5 awregion [3:0] $end
$var logic 1 6 awuser [0:0] $end
$var logic 1 7 awvalid $end
$var logic 1 8 awready $end
$var logic 32 9 wdata [31:0] $end
$var logic 4 : wstrb [3:0] $end
$var logic 1 ; wlast $end
$var logic 1 < wuser [0:0] $end
$var logic 1 = wvalid $end
$var logic 1 > wready $end
$var logic 8 ? bid [7:0] $end
$var logic 2 @ bresp [1:0] $end
$var logic 1 A buser [0:0] $end
$var logic 1 B bvalid $end
$var logic 1 C bready $end
$var logic 8 D arid [7:0] $end
$var logic 32 E araddr [31:0] $end
$var logic 8 F arlen [7:0] $end
$var logic 3 G arsize [2:0] $end
$var logic 2 H arburst [1:0] $end
$var logic 1 I arlock $end
$var logic 4 J arcache [3:0] $end
$var logic 3 K arprot [2:0] $end
$var logic 4 L arqos [3:0] $end
$var logic 4 M arregion [3:0] $end
$var logic 1 N aruser [0:0] $end
$var logic 1 O arvalid $end
$var logic 1 P arready $end
$var logic 8 Q rid [7:0] $end
$var logic 32 R rdata [31:0] $end
$var logic 2 S rresp [1:0] $end
$var logic 1 T rlast $end
$var logic 1 U ruser [0:0] $end
$var logic 1 V rvalid $end
$var logic 1 W rready $end
$upscope $end
$var parameter 32 ! DATA_W [31:0] $end
$var parameter 32 # STRB_W [31:0] $end
$var parameter 32 $ WR_ID_W [31:0] $end
$var parameter 32 $ RD_ID_W [31:0] $end
$var parameter 32 Z VALID_ADDR_W [31:0] $end
$var parameter 32 # BYTE_LANES [31:0] $end
$var parameter 32 $ BYTE_W [31:0] $end
$var parameter 1 [ READ_STATE_IDLE [0:0] $end
$var parameter 1 \ READ_STATE_BURST [0:0] $end
$var logic 1 ] read_state_reg [0:0] $end
$var logic 1 ^ read_state_next [0:0] $end
$var parameter 2 _ WRITE_STATE_IDLE [1:0] $end
$var parameter 2 ` WRITE_STATE_BURST [1:0] $end
$var parameter 2 a WRITE_STATE_RESP [1:0] $end
$var logic 2 b write_state_reg [1:0] $end
$var logic 2 c write_state_next [1:0] $end
$var logic 1 d mem_wr_en $end
$var logic 1 e mem_rd_en $end
$var logic 8 f write_id_reg [7:0] $end
$var logic 8 g write_id_next [7:0] $end
$var logic 16 h write_addr_reg [15:0] $end
$var logic 16 i write_addr_next [15:0] $end
$var logic 8 j write_count_reg [7:0] $end
$var logic 8 k write_count_next [7:0] $end
$var logic 3 l write_size_reg [2:0] $end
$var logic 3 m write_size_next [2:0] $end
$var logic 2 n write_burst_reg [1:0] $end
$var logic 2 o write_burst_next [1:0] $end
$var logic 8 p read_id_reg [7:0] $end
$var logic 8 q read_id_next [7:0] $end
$var logic 16 r read_addr_reg [15:0] $end
$var logic 16 s read_addr_next [15:0] $end
$var logic 8 t read_count_reg [7:0] $end
$var logic 8 u read_count_next [7:0] $end
$var logic 3 v read_size_reg [2:0] $end
$var logic 3 w read_size_next [2:0] $end
$var logic 2 x read_burst_reg [1:0] $end
$var logic 2 y read_burst_next [1:0] $end
$var logic 1 z s_axi_awready_reg $end
$var logic 1 { s_axi_awready_next $end
$var logic 1 | s_axi_wready_reg $end
$var logic 1 } s_axi_wready_next $end
$var logic 8 ~ s_axi_bid_reg [7:0] $end
$var logic 8 !! s_axi_bid_next [7:0] $end
$var logic 1 "! s_axi_bvalid_reg $end
$var logic 1 #! s_axi_bvalid_next $end
$var logic 1 $! s_axi_arready_reg $end
$var logic 1 %! s_axi_arready_next $end
$var logic 8 &! s_axi_rid_reg [7:0] $end
$var logic 8 '! s_axi_rid_next [7:0] $end
$var logic 32 (! s_axi_rdata_reg [31:0] $end
$var logic 32 )! s_axi_rdata_next [31:0] $end
$var logic 1 *! s_axi_rlast_reg $end
$var logic 1 +! s_axi_rlast_next $end
$var logic 1 ,! s_axi_rvalid_reg $end
$var logic 1 -! s_axi_rvalid_next $end
$var logic 8 .! s_axi_rid_pipe_reg [7:0] $end
$var logic 32 /! s_axi_rdata_pipe_reg [31:0] $end
$var logic 1 0! s_axi_rlast_pipe_reg $end
$var logic 1 1! s_axi_rvalid_pipe_reg $end
$var wire 14 2! read_addr_valid [13:0] $end
$var wire 14 3! write_addr_valid [13:0] $end
$scope module unnamedblk1 $end
$var integer 32 4! i [31:0] $end
$scope module unnamedblk2 $end
$var integer 32 5! j [31:0] $end
$upscope $end
$upscope $end
$scope module unnamedblk3 $end
$var integer 32 6! i [31:0] $end
$upscope $end
$upscope $end
$upscope $end
$enddefinitions $end
#0
$dumpvars
b00000000000000000000000000000100 6!
b00000000000000000100000000000000 5!
b00000000000000000100000000000000 4!
b00000000000000 3!
b00000000000000 2!
01!
00!
b00000000000000000000000000000000 /!
b00000000 .!
0-!
0,!
0+!
0*!
b00000000000000000000000000000000 )!
b00000000000000000000000000000000 (!
b00000000 '!
b00000000 &!
1%!
1$!
0#!
0"!
b00000000 !!
b00000000 ~
0}
0|
1{
1z
b00 y
b00 x
b000 w
b000 v
b00000000 u
b00000000 t
b0000000000000000 s
b0000000000000000 r
b00000000 q
b00000000 p
b00 o
b00 n
b000 m
b000 l
b00000000 k
b00000000 j
b0000000000000000 i
b0000000000000000 h
b00000000 g
b00000000 f
0e
0d
b00 c
b00 b
b10 a
b01 `
b00 _
0^
0]
1\
0[
b00000000000000000000000000001110 Z
0Y
1X
1W
0V
0U
0T
b00 S
b00000000000000000000000000000000 R
b00000000 Q
1P
0O
0N
b0000 M
b0000 L
b000 K
b0000 J
0I
b00 H
b000 G
b00000000 F
b00000000000000000000000000000000 E
b00000000 D
1C
0B
0A
b00 @
b00000000 ?
0>
0=
0<
0;
b0000 :
b00000000000000000000000000000000 9
18
07
06
b0000 5
b0000 4
b000 3
b0000 2
01
b00 0
b000 /
b00000000 .
b00000000000000000000000000000000 -
b00000000 ,
1+
b00000000000000000000000100000000 *
b00000000000000000000000000000001 )
0(
0'
1&
b00000000000000000000000000000000 %
b00000000000000000000000000001000 $
b00000000000000000000000000000100 #
b00000000000000000000000000010000 "
b00000000000000000000000000100000 !
$end
#5000
0&
0X
#10000
1X
1&
1'
0C
0W
1Y
#15000
0&
0X
#20000
1X
1&
08
0P
0z
0$!
#25000
0&
0X
#30000
1X
1&
0Y
0'
#35000
0&
0X
#40000
1X
1&
1$!
1z
1P
18
1W
1C
#45000
0&
0X
#50000
1X
1&
#55000
0&
0X
#60000
1X
1&
b00000000000000000001000000000000 -
b00000010 .
b010 /
b01 0
b0011 2
b010 3
17
b10101010101010101010101010101010 9
b1111 :
1=
b01 c
b0001000000000000 i
b00000010 k
b010 m
b01 o
0{
1}
#65000
0&
0X
#70000
1X
1&
b00000001 k
b0001000000000100 i
07
08
0z
1>
b01 b
1d
b0001000000000000 h
b00000010 j
b010 l
b01 n
1|
b00010000000000 3!
#75000
0&
0X
#80000
1X
1&
b00010000000001 3!
b00000001 j
b0001000000000100 h
b0001000000001000 i
b00000000 k
#85000
0&
0X
#90000
1X
1&
b11111111 k
b0001000000001100 i
b0001000000001000 h
b00000000 j
b00010000000010 3!
0}
1{
b00 c
b0001 :
b00000000000000000000000010101010 9
1;
1#!
#95000
0&
0X
#100000
1X
1&
0#!
b00010000000011 3!
b11111111 j
b0001000000001100 h
0|
0d
b00 b
0>
1z
18
0=
1B
1"!
#105000
0&
0X
#110000
1X
1&
0"!
0B
#115000
0&
0X
#120000
1X
1&
1=
b00000000000000000000000000000000 9
b01 c
0{
1}
b0001000000000100 i
b00000000 k
17
b00000000 .
b00000000000000000001000000000100 -
b00000001 ,
b00000001 g
#125000
0&
0X
#130000
1X
1&
07
b11111111 k
b0001000000001000 i
0}
1{
b00 c
08
0z
1>
b01 b
1d
1|
b0001000000000100 h
b00000000 j
b00010000000001 3!
1#!
b00000001 f
b00000001 !!
#135000
0&
0X
#140000
1X
1&
0#!
b00010000000010 3!
b11111111 j
b0001000000001000 h
0|
0d
b00 b
0>
1z
18
0=
1B
1"!
b00000001 ?
b00000001 ~
#145000
0&
0X
#150000
1X
1&
0"!
0B
#155000
0&
0X
#160000
1X
1&
b00000000000000000001000000000011 E
b00000001 F
b010 G
b01 H
b0011 J
b010 K
1O
1^
b0001000000000011 s
b00000001 u
b010 w
b01 y
0%!
#165000
0&
0X
#170000
1X
1&
b00000000 u
b0001000000000111 s
0O
0P
0$!
1]
1e
b0001000000000011 r
b00000001 t
b010 v
b01 x
1-!
b00010000000000 2!
#175000
0&
0X
#180000
1X
1&
b00010000000001 2!
b00000000 t
b0001000000000111 r
b0001000000001011 s
b11111111 u
1%!
0^
b10101010101010101010101010101010 R
1V
b10101010101010101010101010101010 (!
1+!
1,!
#185000
0&
0X
#190000
1X
1&
b10101010101010101010101000000000 (!
b10101010101010101010101000000000 R
b0001000000001011 r
b11111111 t
b00010000000010 2!
0-!
0e
0]
1$!
1P
1T
1*!
b10101010101010101010101010101010 /!
11!
#195000
0&
0X
#200000
1X
1&
b10101010101010101010101000000000 /!
0,!
0V
10!
#205000
0&
0X
#210000
1X
1&
01!
1=
b01 c
0{
1}
b0001000000000001 i
b00000010 k
17
b00000010 g
b00000010 ,
b00000000000000000001000000000001 -
b00000010 .
b10101010101010101010101000000000 9
0;
b1110 :
#215000
0&
0X
#220000
1X
1&
07
b00000001 k
b0001000000000101 i
08
0z
1>
b01 b
1d
1|
b0001000000000001 h
b00000010 j
b00010000000000 3!
b00000010 f
#225000
0&
0X
#230000
1X
1&
b00010000000001 3!
b00000001 j
b0001000000000101 h
b0001000000001001 i
b00000000 k
b1111 :
b10101010101010101010101010101010 9
#235000
0&
0X
#240000
1X
1&
b00000000000000001010101010101010 9
b0011 :
b11111111 k
b0001000000001101 i
b0001000000001001 h
b00000000 j
b00010000000010 3!
1;
0}
1{
b00 c
1#!
b00000010 !!
#245000
0&
0X
#250000
1X
1&
0#!
b00010000000011 3!
b11111111 j
b0001000000001101 h
0|
0d
b00 b
0>
1z
18
0=
1B
1"!
b00000010 ~
b00000010 ?
#255000
0&
0X
#260000
1X
1&
0"!
0B
#265000
0&
0X
#270000
1X
1&
1=
b01 c
0{
1}
b0001000000000101 i
b00000000 k
b0010 :
b00000000000000000000000000000000 9
17
b00000000 .
b00000000000000000001000000000101 -
b00000011 ,
b00000011 g
#275000
0&
0X
#280000
1X
1&
07
b11111111 k
b0001000000001001 i
0}
1{
b00 c
08
0z
1>
b01 b
1d
1|
b0001000000000101 h
b00000000 j
b00010000000001 3!
1#!
b00000011 !!
b00000011 f
#285000
0&
0X
#290000
1X
1&
0#!
b00010000000010 3!
b11111111 j
b0001000000001001 h
0|
0d
b00 b
0>
1z
18
0=
1B
1"!
b00000011 ?
b00000011 ~
#295000
0&
0X
#300000
1X
1&
0"!
0B
#305000
0&
0X
#310000
1X
1&
1^
0%!
b00000000 u
b0001000000000100 s
1O
b00000000 F
b00000000000000000001000000000100 E
b00000001 D
b00000001 q
#315000
0&
0X
#320000
1X
1&
0O
b0001000000001000 s
b11111111 u
1%!
0^
0P
0$!
1]
1e
1-!
b00010000000001 2!
b00000000 t
b0001000000000100 r
b00000001 p
b00000001 '!
#325000
0&
0X
#330000
1X
1&
b0001000000001000 r
b11111111 t
b00010000000010 2!
0-!
0e
0]
1$!
1P
1V
1,!
b10101010101010100000000010101010 R
b10101010101010100000000010101010 (!
b00000001 Q
b00000001 &!
#335000
0&
0X
#340000
1X
1&
0,!
0V
11!
b10101010101010100000000010101010 /!
b00000001 .!
#345000
0&
0X
#350000
1X
1&
01!
1=
b01 c
0{
1}
b0001000000000010 i
b00000010 k
17
b00000100 g
b00000100 ,
b00000000000000000001000000000010 -
b00000010 .
b10101010101010100000000000000000 9
b1100 :
0;
#355000
0&
0X
#360000
1X
1&
07
b00000001 k
b0001000000000110 i
08
0z
1>
b01 b
1d
1|
b0001000000000010 h
b00000010 j
b00010000000000 3!
b00000100 f
#365000
0&
0X
#370000
1X
1&
b00010000000001 3!
b00000001 j
b0001000000000110 h
b0001000000001010 i
b00000000 k
b1111 :
b10101010101010101010101010101010 9
#375000
0&
0X
#380000
1X
1&
b00000000101010101010101010101010 9
b0111 :
b11111111 k
b0001000000001110 i
b0001000000001010 h
b00000000 j
b00010000000010 3!
1;
0}
1{
b00 c
1#!
b00000100 !!
#385000
0&
0X
#390000
1X
1&
0#!
b00010000000011 3!
b11111111 j
b0001000000001110 h
0|
0d
b00 b
0>
1z
18
0=
1B
1"!
b00000100 ~
b00000100 ?
#395000
0&
0X
#400000
1X
1&
0"!
0B
#405000
0&
0X
#410000
1X
1&
1=
b01 c
0{
1}
b0001000000000110 i
b00000000 k
b0100 :
b00000000000000000000000000000000 9
17
b00000000 .
b00000000000000000001000000000110 -
b00000101 ,
b00000101 g
#415000
0&
0X
#420000
1X
1&
07
b11111111 k
b0001000000001010 i
0}
1{
b00 c
08
0z
1>
b01 b
1d
1|
b0001000000000110 h
b00000000 j
b00010000000001 3!
1#!
b00000101 !!
b00000101 f
#425000
0&
0X
#430000
1X
1&
0#!
b00010000000010 3!
b11111111 j
b0001000000001010 h
0|
0d
b00 b
0>
1z
18
0=
1B
1"!
b00000101 ?
b00000101 ~
#435000
0&
0X
#440000
1X
1&
0"!
0B
#445000
0&
0X
#450000
1X
1&
1^
0%!
b00000000 u
b0001000000000101 s
1O
b00000010 q
b00000010 D
b00000000000000000001000000000101 E
#455000
0&
0X
#460000
1X
1&
0O
b0001000000001001 s
b11111111 u
1%!
0^
0P
0$!
1]
1e
1-!
b00010000000001 2!
b00000000 t
b0001000000000101 r
b00000010 '!
b00000010 p
#465000
0&
0X
#470000
1X
1&
b0001000000001001 r
b11111111 t
b00010000000010 2!
0-!
0e
0]
1$!
1P
1V
1,!
b00000010 &!
b00000010 Q
b10101010000000001010101010101010 (!
b10101010000000001010101010101010 R
#475000
0&
0X
#480000
1X
1&
0,!
0V
11!
b00000010 .!
b10101010000000001010101010101010 /!
#485000
0&
0X
#490000
1X
1&
01!
1=
b01 c
0{
1}
b0001000000000011 i
b00000010 k
17
b00000110 g
b00000110 ,
b00000000000000000001000000000011 -
b00000010 .
b10101010000000000000000000000000 9
b1000 :
0;
#495000
0&
0X
#500000
1X
1&
07
b00000001 k
b0001000000000111 i
08
0z
1>
b01 b
1d
1|
b0001000000000011 h
b00000010 j
b00010000000000 3!
b00000110 f
#505000
0&
0X
#510000
1X
1&
b00010000000001 3!
b00000001 j
b0001000000000111 h
b0001000000001011 i
b00000000 k
b1111 :
b10101010101010101010101010101010 9
#515000
0&
0X
#520000
1X
1&
b11111111 k
b0001000000001111 i
b0001000000001011 h
b00000000 j
b00010000000010 3!
1;
0}
1{
b00 c
1#!
b00000110 !!
#525000
0&
0X
#530000
1X
1&
0#!
b00010000000011 3!
b11111111 j
b0001000000001111 h
0|
0d
b00 b
0>
1z
18
0=
1B
1"!
b00000110 ~
b00000110 ?
#535000
0&
0X
#540000
1X
1&
0"!
0B
#545000
0&
0X
#550000
1X
1&
1=
b01 c
0{
1}
b0001000000000111 i
b00000000 k
b00000000000000000000000000000000 9
b1000 :
17
b00000000 .
b00000000000000000001000000000111 -
b00000111 ,
b00000111 g
#555000
0&
0X
#560000
1X
1&
07
b11111111 k
b0001000000001011 i
0}
1{
b00 c
08
0z
1>
b01 b
1d
1|
b0001000000000111 h
b00000000 j
b00010000000001 3!
1#!
b00000111 !!
b00000111 f
#565000
0&
0X
#570000
1X
1&
0#!
b00010000000010 3!
b11111111 j
b0001000000001011 h
0|
0d
b00 b
0>
1z
18
0=
1B
1"!
b00000111 ?
b00000111 ~
#575000
0&
0X
#580000
1X
1&
0"!
0B
#585000
0&
0X
#590000
1X
1&
1^
0%!
b00000001 u
b0001000000000110 s
1O
b00000000000000000001000000000110 E
b00000011 D
b00000011 q
b00000001 F
#595000
0&
0X
#600000
1X
1&
0O
b0001000000001010 s
b00000000 u
0P
0$!
1]
1e
1-!
b00010000000001 2!
b00000001 t
b0001000000000110 r
b00000011 p
b00000011 '!
0+!
#605000
0&
0X
#610000
1X
1&
1+!
b0001000000001010 r
b00000000 t
b00010000000010 2!
b11111111 u
b0001000000001110 s
1%!
0^
1V
1,!
b00000000101010101010101010101010 R
b00000000101010101010101010101010 (!
b00000011 Q
b00000011 &!
0*!
0T
#615000
0&
0X
#620000
1X
1&
1T
1*!
b10101010101010101010101010101010 (!
b10101010101010101010101010101010 R
b00010000000011 2!
b11111111 t
b0001000000001110 r
0-!
0e
0]
1$!
1P
11!
b00000000101010101010101010101010 /!
b00000011 .!
00!
#625000
0&
0X
#630000
1X
1&
10!
b10101010101010101010101010101010 /!
0,!
0V
#635000
0&
0X
#640000
1X
1&
01!
1=
b01 c
0{
1}
b0001111111111000 i
b00000001 k
17
b00001000 g
b00001000 ,
b00000000000000000001111111111000 -
b00000001 .
b1111 :
b10101010101010101010101010101010 9
0;
#645000
0&
0X
#650000
1X
1&
b00000000 .
b00000000000000000010000000000000 -
b00000000 k
b0001111111111100 i
08
0z
1>
b01 b
1d
1|
b0001111111111000 h
b00000001 j
b00011111111110 3!
b00001000 f
#655000
0&
0X
#660000
1X
1&
b00011111111111 3!
b00000000 j
b0001111111111100 h
b0010000000000000 i
b11111111 k
1;
0}
1{
b00 c
1#!
b00001000 !!
#665000
0&
0X
#670000
1X
1&
0#!
b01 c
0{
1}
b00000000 k
b0010000000000000 h
b11111111 j
b00100000000000 3!
0|
0d
b00 b
0>
1z
18
b00000000000000000000000010101010 9
b0001 :
1B
1"!
b00001000 ~
b00001000 ?
#675000
0&
0X
#680000
1X
1&
0"!
0B
08
0z
1>
b01 b
1d
1|
b00000000 j
b11111111 k
0}
1{
b00 c
1#!
b0010000000000100 i
07
#685000
0&
0X
#690000
1X
1&
0#!
b11111111 j
0|
0d
b00 b
0>
1z
18
1B
1"!
b00100000000001 3!
b0010000000000100 h
0=
#695000
0&
0X
#700000
1X
1&
0"!
0B
#705000
0&
0X
#710000
1X
1&
1=
17
b0001111111111100 i
b01 c
0{
1}
b00000000 k
b00000000000000000000000000000000 9
b00000000000000000001111111111100 -
b00001001 ,
b00001001 g
#715000
0&
0X
#720000
1X
1&
b11111111 k
0}
1{
b00 c
b0010000000000000 i
07
b0001111111111100 h
b00011111111111 3!
08
0z
1>
b01 b
1d
1|
b00000000 j
1#!
b00001001 !!
b00001001 f
#725000
0&
0X
#730000
1X
1&
0#!
b11111111 j
0|
0d
b00 b
0>
1z
18
b00100000000000 3!
b0010000000000000 h
0=
1B
1"!
b00001001 ?
b00001001 ~
#735000
0&
0X
#740000
1X
1&
0"!
0B
#745000
0&
0X
#750000
1X
1&
1^
0%!
b0001111111111011 s
b00000001 u
1O
b00000100 q
b00000100 D
b00000000000000000001111111111011 E
#755000
0&
0X
#760000
1X
1&
0O
b00000000 u
b0001111111111111 s
0P
0$!
1]
1e
1-!
b0001111111111011 r
b00000001 t
b00011111111110 2!
0+!
b00000100 '!
b00000100 p
#765000
0&
0X
#770000
1X
1&
1+!
b00011111111111 2!
b00000000 t
b0001111111111111 r
b0010000000000011 s
b11111111 u
1%!
0^
1V
1,!
0*!
0T
b00000100 &!
b00000100 Q
#775000
0&
0X
#780000
1X
1&
1T
1*!
b0010000000000011 r
b11111111 t
b00100000000000 2!
0-!
0e
0]
1$!
1P
11!
00!
b00000100 .!
b10101010101010101010101000000000 R
b10101010101010101010101000000000 (!
#785000
0&
0X
#790000
1X
1&
10!
0,!
0V
b10101010101010101010101000000000 /!
#795000
0&
0X
#800000
1X
1&
01!
1=
17
b0001111111111001 i
b01 c
0{
1}
b00000001 k
b00001010 g
b00001010 ,
b00000000000000000001111111111001 -
b10101010101010101010101000000000 9
b1110 :
0;
b00000001 .
#805000
0&
0X
#810000
1X
1&
b00000000 .
b00000000000000000010000000000000 -
b00000000 k
b0001111111111101 i
b0001111111111001 h
b00011111111110 3!
08
0z
1>
b01 b
1d
1|
b00000001 j
b00001010 f
#815000
0&
0X
#820000
1X
1&
b00000000 j
b00011111111111 3!
b0001111111111101 h
b0010000000000001 i
b11111111 k
1;
b1111 :
b10101010101010101010101010101010 9
0}
1{
b00 c
1#!
b00001010 !!
#825000
0&
0X
#830000
1X
1&
0#!
b01 c
0{
1}
b00000000000000001010101010101010 9
b0011 :
b00000000 k
b0010000000000000 i
b0010000000000001 h
b00100000000000 3!
b11111111 j
0|
0d
b00 b
0>
1z
18
1B
1"!
b00001010 ~
b00001010 ?
#835000
0&
0X
#840000
1X
1&
0"!
0B
08
0z
1>
b01 b
1d
1|
b00000000 j
b0010000000000000 h
b0010000000000100 i
b11111111 k
0}
1{
b00 c
1#!
07
#845000
0&
0X
#850000
1X
1&
0#!
b0010000000000100 h
b11111111 j
0|
0d
b00 b
0>
1z
18
1B
1"!
b00100000000001 3!
0=
#855000
0&
0X
#860000
1X
1&
0"!
0B
#865000
0&
0X
#870000
1X
1&
1=
17
b01 c
0{
1}
b00000000 k
b0001111111111101 i
b0010 :
b00000000000000000000000000000000 9
b00000000000000000001111111111101 -
b00001011 ,
b00001011 g
#875000
0&
0X
#880000
1X
1&
b0010000000000001 i
b11111111 k
0}
1{
b00 c
07
b00011111111111 3!
08
0z
1>
b01 b
1d
1|
b00000000 j
b0001111111111101 h
1#!
b00001011 !!
b00001011 f
#885000
0&
0X
#890000
1X
1&
0#!
b0010000000000001 h
b11111111 j
0|
0d
b00 b
0>
1z
18
b00100000000000 3!
0=
1B
1"!
b00001011 ?
b00001011 ~
#895000
0&
0X
#900000
1X
1&
0"!
0B
#905000
0&
0X
#910000
1X
1&
1^
0%!
b00000000 u
b0001111111111100 s
1O
b00000000000000000001111111111100 E
b00000101 D
b00000101 q
b00000000 F
#915000
0&
0X
#920000
1X
1&
0O
b0010000000000000 s
b11111111 u
1%!
0^
0P
0$!
1]
1e
1-!
b00011111111111 2!
b00000000 t
b0001111111111100 r
b00000101 p
b00000101 '!
#925000
0&
0X
#930000
1X
1&
b0010000000000000 r
b11111111 t
b00100000000000 2!
0-!
0e
0]
1$!
1P
1V
1,!
b10101010101010100000000010101010 (!
b10101010101010100000000010101010 R
b00000101 Q
b00000101 &!
#935000
0&
0X
#940000
1X
1&
0,!
0V
11!
b10101010101010100000000010101010 /!
b00000101 .!
#945000
0&
0X
#950000
1X
1&
01!
1=
17
b01 c
0{
1}
b00000001 k
b0001111111111010 i
b00001100 g
b00001100 ,
b00000000000000000001111111111010 -
b10101010101010100000000000000000 9
b1100 :
0;
b00000001 .
#955000
0&
0X
#960000
1X
1&
b00000000 .
b00000000000000000010000000000000 -
b0001111111111110 i
b00000000 k
b00011111111110 3!
08
0z
1>
b01 b
1d
1|
b00000001 j
b0001111111111010 h
b00001100 f
#965000
0&
0X
#970000
1X
1&
b0001111111111110 h
b00000000 j
b00011111111111 3!
b11111111 k
b0010000000000010 i
1;
b1111 :
b10101010101010101010101010101010 9
0}
1{
b00 c
1#!
b00001100 !!
#975000
0&
0X
#980000
1X
1&
0#!
b01 c
0{
1}
b00000000101010101010101010101010 9
b0111 :
b0010000000000000 i
b00000000 k
b00100000000000 3!
b11111111 j
b0010000000000010 h
0|
0d
b00 b
0>
1z
18
1B
1"!
b00001100 ~
b00001100 ?
#985000
0&
0X
#990000
1X
1&
0"!
0B
08
0z
1>
b01 b
1d
1|
b0010000000000000 h
b00000000 j
b11111111 k
b0010000000000100 i
0}
1{
b00 c
1#!
07
#995000
0&
0X
#1000000
1X
1&
0#!
b11111111 j
b0010000000000100 h
0|
0d
b00 b
0>
1z
18
1B
1"!
b00100000000001 3!
0=
#1005000
0&
0X
#1010000
1X
1&
0"!
0B
#1015000
0&
0X
