tests/test_dumps/test_complex_scope.vcd
$date
   Date text. For example: November 11, 2009.
$end
$version
   VCD generator tool version info text.
$end
$comment
   Any comment text.
$end
$timescale 1ps $end
$scope module top $end
$scope module logic $end
$var wire 1 # clk $end 
$var wire 8 $ data $end
$var wire 1 % ready $end
$var wire 1 & valid $end
$var wire 1 * reset $end
$upscope $end
$upscope $end
$enddefinitions $end
$dumpvars
0#
bxxxxxxxx $
0%
0&
0*
$end
#1
1#
b00000001 $
1%
1&
1*
#2
0#
#3
1#
b00000010 $
1%
#4
0#
#5
1#
b00000011 $
1%
#6
0#
#7
1#
b00000100 $
1%
#8
0#
#9
1#
bxxxxxxxx $
1%
0&
#10
0#
#11
1#
bxxxxxxxx $
1%
#12
0#
#13
1#
b0000101 $
1&
#14
0#
#15
1#
bxxxxxxxx $
0&
#16
0#
#17
1#
b00000110 $
1&
#18
0#
#19
1#
b00000111 $
#20
0#
#21
1#
bxxxxxxxx $
0%
0&
#22
0#
#23
1#
#24
0#
#25
1#
#26
0#
#27
1#
b00001000 $
1&
#28
0#
#29
1#
#30
0#
#31
1#
#32
0#
#33
1#
1%
#34
0#
#35
1#
b00001001 $
0%
#36
0#
#37
1#
#38
0#
#39
1#
1%
