tests/test_dumps/test_complex_scope.vcd
$date
   Date text. For example: November 11, 2009.
$end
$version
   VCD generator tool version info text.
$end
$comment
   Any comment text.
$end
$timescale 1ps $end
$scope module top $end
$scope module logic $end
$var wire 1 # clk $end 
$var wire 8 $ data $end
$var wire 1 % ready $end
$var wire 1 & valid $end
$var wire 1 * reset $end
$upscope $end
$upscope $end
$enddefinitions $end
$dumpvars
1#
bxxxxxxxx $
0%
0&
0*
$end
#1
0#
#2
1#
b00000001 $
1%
1&
1*
#3
0#
#4
1#
b00000010 $
1%
#5
0#
#6
1#
b00000011 $
1%
#7
0#
#8
1#
b00000100 $
1%
#9
0#
#10
1#
bxxxxxxxx $
1%
0&
#11
0#
#12
1#
bxxxxxxxx $
1%
#13
0#
#14
1#
b0000101 $
1&
#15
0#
#16
1#
bxxxxxxxx $
0&
#17
0#
#18
1#
b00000110 $
1&
#19
0#
#20
1#
b00000111 $
#21
0#
#22
1#
bxxxxxxxx $
0%
0&
#23
0#
#24
1#
#25
0#
#26
1#
#27
0#
#28
1#
b00001000 $
1&
#29
0#
#30
1#
#31
0#
#32
1#
#33
0#
#34
1#
1%
#35
0#
#36
1#
b00001001 $
0%
#37
0#
#38
1#
#39
0#
#40
1#
1%
